\addvspace {10\p@ }
\addvspace {10\p@ }
\contentsline {table}{\numberline {2.1}{\ignorespaces Feature Acquisition motivation scenario\relax }}{6}{table.caption.11}
\contentsline {table}{\numberline {2.2}{\ignorespaces Patient temperatur acquisition via thermometer motivation scenario\relax }}{7}{table.caption.12}
\contentsline {table}{\numberline {2.3}{\ignorespaces Outcome Mediation Motivation Scenario\relax }}{8}{table.caption.13}
\contentsline {table}{\numberline {2.4}{\ignorespaces Treatment Recommendation Motivation Scenario\relax }}{9}{table.caption.14}
\contentsline {table}{\numberline {2.5}{\ignorespaces Patient Archive Recording Motivation Scenario\relax }}{10}{table.caption.15}
\contentsline {table}{\numberline {2.6}{\ignorespaces User Interaction Management Motivation scenario\relax }}{11}{table.caption.16}
\contentsline {table}{\numberline {2.7}{\ignorespaces Internal Communication Management\relax }}{12}{table.caption.17}
\contentsline {table}{\numberline {2.8}{\ignorespaces External Measurement devices Communication Management Motivation scenario\relax }}{13}{table.caption.18}
\contentsline {table}{\numberline {2.9}{\ignorespaces Bluetooth Communication Management Motivation scenario\relax }}{14}{table.caption.19}
\addvspace {10\p@ }
\contentsline {table}{\numberline {3.1}{\ignorespaces Feature Inspector\relax }}{24}{table.caption.28}
\contentsline {table}{\numberline {3.2}{\ignorespaces Feature Inspector cont.\relax }}{25}{table.caption.29}
\contentsline {table}{\numberline {3.3}{\ignorespaces Outcome Mediator role \relax }}{27}{table.caption.30}
\contentsline {table}{\numberline {3.4}{\ignorespaces IMCI Outcome Representative Role\relax }}{29}{table.caption.31}
\contentsline {table}{\numberline {3.5}{\ignorespaces New disease " Dengue Fever " Representative Role\relax }}{31}{table.caption.32}
\contentsline {table}{\numberline {3.6}{\ignorespaces Treatment Recommender Role\relax }}{33}{table.caption.33}
\contentsline {table}{\numberline {3.7}{\ignorespaces Patient Archive Recorder\relax }}{34}{table.caption.34}
\contentsline {table}{\numberline {3.8}{\ignorespaces Mediator\relax }}{35}{table.caption.35}
\contentsline {table}{\numberline {3.9}{\ignorespaces Measurement Device Manager\relax }}{36}{table.caption.36}
\contentsline {table}{\numberline {3.10}{\ignorespaces User Interface Manager\relax }}{37}{table.caption.37}
\contentsline {table}{\numberline {3.11}{\ignorespaces User Interface Manager (Cont.)\relax }}{38}{table.caption.38}
\contentsline {table}{\numberline {3.12}{\ignorespaces Bluetooth Manager\relax }}{40}{table.caption.39}
\contentsline {table}{\numberline {3.13}{\ignorespaces Patient information Manager\relax }}{41}{table.caption.40}
\addvspace {10\p@ }
\addvspace {10\p@ }
\addvspace {10\p@ }
\addvspace {10\p@ }
\addvspace {10\p@ }
