\relax 
\providecommand\HyperFirstAtBeginDocument{\AtBeginDocument}
\HyperFirstAtBeginDocument{\ifx\hyper@anchor\@undefined
\global\let\oldcontentsline\contentsline
\gdef\contentsline#1#2#3#4{\oldcontentsline{#1}{#2}{#3}}
\global\let\oldnewlabel\newlabel
\gdef\newlabel#1#2{\newlabelxx{#1}#2}
\gdef\newlabelxx#1#2#3#4#5#6{\oldnewlabel{#1}{{#2}{#3}}}
\AtEndDocument{\ifx\hyper@anchor\@undefined
\let\contentsline\oldcontentsline
\let\newlabel\oldnewlabel
\fi}
\fi}
\global\let\hyper@last\relax 
\gdef\HyperFirstAtBeginDocument#1{#1}
\providecommand\HyField@AuxAddToFields[1]{}
\@input{inside_cover.aux}
\@input{change_history.aux}
\@writefile{toc}{\contentsline {section}{LIST OF TABLES}{iv}{section*.9}}
\@writefile{toc}{\contentsline {section}{LIST OF FIGURES}{v}{section*.10}}
\@writefile{toc}{\contentsline {chapter}{\numberline {1}Introduction}{1}{chapter.1}}
\@writefile{lof}{\addvspace {10\p@ }}
\@writefile{lot}{\addvspace {10\p@ }}
\@writefile{toc}{\contentsline {section}{\numberline {1.1}Document Purpose}{1}{section.1.1}}
\@writefile{toc}{\contentsline {section}{\numberline {1.2}Document Conventions}{2}{section.1.2}}
\@writefile{toc}{\contentsline {section}{\numberline {1.3}Intended Audience and Reading Suggestions}{2}{section.1.3}}
\@writefile{toc}{\contentsline {section}{\numberline {1.4}Project Scope}{2}{section.1.4}}
\@writefile{toc}{\contentsline {section}{\numberline {1.5}References}{3}{section.1.5}}
\@writefile{toc}{\contentsline {chapter}{\numberline {2}System Analysis }{4}{chapter.2}}
\@writefile{lof}{\addvspace {10\p@ }}
\@writefile{lot}{\addvspace {10\p@ }}
\@writefile{toc}{\contentsline {section}{\numberline {2.1}System Perspective}{4}{section.2.1}}
\@writefile{toc}{\contentsline {section}{\numberline {2.2}Analysis Methodology}{4}{section.2.2}}
\@writefile{toc}{\contentsline {section}{\numberline {2.3}System Motivation Scenarios}{5}{section.2.3}}
\@writefile{toc}{\contentsline {subsection}{\numberline {2.3.1} System core functionalities}{5}{subsection.2.3.1}}
\@writefile{toc}{\contentsline {subsubsection}{\numberline {2.3.1.1}Feature Acquisition}{5}{subsubsection.2.3.1.1}}
\@writefile{lot}{\contentsline {table}{\numberline {2.1}{\ignorespaces Feature Acquisition motivation scenario\relax }}{6}{table.caption.11}}
\newlabel{table:FA}{{2.1}{6}{Feature Acquisition motivation scenario\relax \relax }{table.caption.11}{}}
\@writefile{toc}{\contentsline {subsubsection}{\numberline {2.3.1.2}Patient Temperature Acquisition via Thermometer}{6}{subsubsection.2.3.1.2}}
\@writefile{lot}{\contentsline {table}{\numberline {2.2}{\ignorespaces Patient temperatur acquisition via thermometer motivation scenario\relax }}{7}{table.caption.12}}
\newlabel{TA}{{2.2}{7}{Patient temperatur acquisition via thermometer motivation scenario\relax \relax }{table.caption.12}{}}
\@writefile{toc}{\contentsline {subsubsection}{\numberline {2.3.1.3}Outcome Mediation}{7}{subsubsection.2.3.1.3}}
\@writefile{lot}{\contentsline {table}{\numberline {2.3}{\ignorespaces Outcome Mediation Motivation Scenario\relax }}{8}{table.caption.13}}
\newlabel{OM}{{2.3}{8}{Outcome Mediation Motivation Scenario\relax \relax }{table.caption.13}{}}
\@writefile{toc}{\contentsline {subsubsection}{\numberline {2.3.1.4}Treatment Recommendation}{9}{subsubsection.2.3.1.4}}
\@writefile{lot}{\contentsline {table}{\numberline {2.4}{\ignorespaces Treatment Recommendation Motivation Scenario\relax }}{9}{table.caption.14}}
\newlabel{TR}{{2.4}{9}{Treatment Recommendation Motivation Scenario\relax \relax }{table.caption.14}{}}
\@writefile{toc}{\contentsline {subsubsection}{\numberline {2.3.1.5}Patient Archive Recording}{9}{subsubsection.2.3.1.5}}
\@writefile{lot}{\contentsline {table}{\numberline {2.5}{\ignorespaces Patient Archive Recording Motivation Scenario\relax }}{10}{table.caption.15}}
\newlabel{PAR}{{2.5}{10}{Patient Archive Recording Motivation Scenario\relax \relax }{table.caption.15}{}}
\@writefile{toc}{\contentsline {subsection}{\numberline {2.3.2}System Management Functionalities}{10}{subsection.2.3.2}}
\@writefile{toc}{\contentsline {subsubsection}{\numberline {2.3.2.1}User Interaction Management}{10}{subsubsection.2.3.2.1}}
\@writefile{lot}{\contentsline {table}{\numberline {2.6}{\ignorespaces User Interaction Management Motivation scenario\relax }}{11}{table.caption.16}}
\newlabel{UIM}{{2.6}{11}{User Interaction Management Motivation scenario\relax \relax }{table.caption.16}{}}
\@writefile{toc}{\contentsline {subsubsection}{\numberline {2.3.2.2}Internal Communication Management}{11}{subsubsection.2.3.2.2}}
\@writefile{lot}{\contentsline {table}{\numberline {2.7}{\ignorespaces Internal Communication Management\relax }}{12}{table.caption.17}}
\newlabel{INT}{{2.7}{12}{Internal Communication Management\relax \relax }{table.caption.17}{}}
\@writefile{toc}{\contentsline {subsubsection}{\numberline {2.3.2.3}External Measurement devices Communication Management}{12}{subsubsection.2.3.2.3}}
\@writefile{lot}{\contentsline {table}{\numberline {2.8}{\ignorespaces External Measurement devices Communication Management Motivation scenario\relax }}{13}{table.caption.18}}
\newlabel{EMDM}{{2.8}{13}{External Measurement devices Communication Management Motivation scenario\relax \relax }{table.caption.18}{}}
\@writefile{toc}{\contentsline {subsubsection}{\numberline {2.3.2.4}Bluetooth Communication Management}{13}{subsubsection.2.3.2.4}}
\@writefile{lot}{\contentsline {table}{\numberline {2.9}{\ignorespaces Bluetooth Communication Management Motivation scenario\relax }}{14}{table.caption.19}}
\newlabel{BCM}{{2.9}{14}{Bluetooth Communication Management Motivation scenario\relax \relax }{table.caption.19}{}}
\@writefile{toc}{\contentsline {chapter}{\numberline {3}System Modelling}{15}{chapter.3}}
\@writefile{lof}{\addvspace {10\p@ }}
\@writefile{lot}{\addvspace {10\p@ }}
\@writefile{toc}{\contentsline {section}{\numberline {3.1}System Goal Models }{15}{section.3.1}}
\@writefile{toc}{\contentsline {section}{\numberline {3.2}High Level Goals and Overall Goal Model }{15}{section.3.2}}
\@writefile{lof}{\contentsline {figure}{\numberline {3.1}{\ignorespaces Overall goal model for the system\relax }}{16}{figure.caption.20}}
\newlabel{fig: goal}{{3.1}{16}{Overall goal model for the system\relax \relax }{figure.caption.20}{}}
\@writefile{toc}{\contentsline {subsection}{\numberline {3.2.1}Sub-goal model for diagnosing patients}{17}{subsection.3.2.1}}
\@writefile{lof}{\contentsline {figure}{\numberline {3.2}{\ignorespaces Sub-goal model for diagnosing patients\relax }}{17}{figure.caption.21}}
\newlabel{fig: goal1}{{3.2}{17}{Sub-goal model for diagnosing patients\relax \relax }{figure.caption.21}{}}
\@writefile{toc}{\contentsline {subsection}{\numberline {3.2.2}Sub-goal model for identifying patient health problems and recommending treatments}{17}{subsection.3.2.2}}
\@writefile{lof}{\contentsline {figure}{\numberline {3.3}{\ignorespaces Sub-goal model for identifying patient health problems and recommending treatments\relax }}{18}{figure.caption.22}}
\newlabel{fig: goal2}{{3.3}{18}{Sub-goal model for identifying patient health problems and recommending treatments\relax \relax }{figure.caption.22}{}}
\@writefile{toc}{\contentsline {subsection}{\numberline {3.2.3}Sub-goal model for managing patient data}{18}{subsection.3.2.3}}
\@writefile{lof}{\contentsline {figure}{\numberline {3.4}{\ignorespaces Sub-goal model for for managing patient data\relax }}{18}{figure.caption.23}}
\newlabel{fig: goal4}{{3.4}{18}{Sub-goal model for for managing patient data\relax \relax }{figure.caption.23}{}}
\@writefile{toc}{\contentsline {subsection}{\numberline {3.2.4}Sub-goal model for the mediator (internal communication)}{18}{subsection.3.2.4}}
\@writefile{lof}{\contentsline {figure}{\numberline {3.5}{\ignorespaces Sub-goal model for the mediator (internal system communication)\relax }}{19}{figure.caption.24}}
\newlabel{fig: goal3}{{3.5}{19}{Sub-goal model for the mediator (internal system communication)\relax \relax }{figure.caption.24}{}}
\@writefile{toc}{\contentsline {subsection}{\numberline {3.2.5}Sub-goal model for external measurement devices}{19}{subsection.3.2.5}}
\@writefile{lof}{\contentsline {figure}{\numberline {3.6}{\ignorespaces Sub-goal model for external measurement devices\relax }}{20}{figure.caption.25}}
\newlabel{fig: goal5}{{3.6}{20}{Sub-goal model for external measurement devices\relax \relax }{figure.caption.25}{}}
\@writefile{toc}{\contentsline {subsection}{\numberline {3.2.6}Sub-goal model for the user interface interaction}{20}{subsection.3.2.6}}
\@writefile{lof}{\contentsline {figure}{\numberline {3.7}{\ignorespaces Sub-goal model for the user interface interaction\relax }}{21}{figure.caption.26}}
\newlabel{fig: goal6}{{3.7}{21}{Sub-goal model for the user interface interaction\relax \relax }{figure.caption.26}{}}
\@writefile{toc}{\contentsline {section}{\numberline {3.3}System Role Models }{21}{section.3.3}}
\@writefile{lof}{\contentsline {figure}{\numberline {3.8}{\ignorespaces Hierarchy of roles in the system\relax }}{22}{figure.caption.27}}
\newlabel{fig: role}{{3.8}{22}{Hierarchy of roles in the system\relax \relax }{figure.caption.27}{}}
\@writefile{toc}{\contentsline {subsection}{\numberline {3.3.1}Feature Inspector}{22}{subsection.3.3.1}}
\@writefile{lot}{\contentsline {table}{\numberline {3.1}{\ignorespaces Feature Inspector\relax }}{24}{table.caption.28}}
\newlabel{table:featureInspector}{{3.1}{24}{Feature Inspector\relax \relax }{Item.117}{}}
\@writefile{lot}{\contentsline {table}{\numberline {3.2}{\ignorespaces Feature Inspector cont.\relax }}{25}{table.caption.29}}
\newlabel{table:featureInspector2}{{3.2}{25}{Feature Inspector cont.\relax \relax }{Item.124}{}}
\@writefile{toc}{\contentsline {subsection}{\numberline {3.3.2}Outcome Mediator role }{26}{subsection.3.3.2}}
\@writefile{lot}{\contentsline {table}{\numberline {3.3}{\ignorespaces Outcome Mediator role \relax }}{27}{table.caption.30}}
\newlabel{table:OutcomeMediator}{{3.3}{27}{Outcome Mediator role \relax \relax }{Item.135}{}}
\@writefile{toc}{\contentsline {subsection}{\numberline {3.3.3}IMCI Outcome Representative Role}{28}{subsection.3.3.3}}
\@writefile{lot}{\contentsline {table}{\numberline {3.4}{\ignorespaces IMCI Outcome Representative Role\relax }}{29}{table.caption.31}}
\newlabel{table:outcomeR}{{3.4}{29}{IMCI Outcome Representative Role\relax \relax }{Item.141}{}}
\@writefile{toc}{\contentsline {subsection}{\numberline {3.3.4}" Dengue Fever " Representative Role}{30}{subsection.3.3.4}}
\@writefile{lot}{\contentsline {table}{\numberline {3.5}{\ignorespaces New disease " Dengue Fever " Representative Role\relax }}{31}{table.caption.32}}
\newlabel{Q1}{{3.5}{31}{New disease " Dengue Fever " Representative Role\relax \relax }{Item.150}{}}
\@writefile{toc}{\contentsline {subsection}{\numberline {3.3.5}Treatment Recommender Role}{32}{subsection.3.3.5}}
\@writefile{lot}{\contentsline {table}{\numberline {3.6}{\ignorespaces Treatment Recommender Role\relax }}{33}{table.caption.33}}
\newlabel{t}{{3.6}{33}{Treatment Recommender Role\relax \relax }{Item.162}{}}
\@writefile{toc}{\contentsline {subsection}{\numberline {3.3.6}Patient Archive Recorder}{34}{subsection.3.3.6}}
\@writefile{lot}{\contentsline {table}{\numberline {3.7}{\ignorespaces Patient Archive Recorder\relax }}{34}{table.caption.34}}
\newlabel{table:archiveRecorder}{{3.7}{34}{Patient Archive Recorder\relax \relax }{Item.174}{}}
\@writefile{toc}{\contentsline {subsection}{\numberline {3.3.7}Mediator}{35}{subsection.3.3.7}}
\@writefile{lot}{\contentsline {table}{\numberline {3.8}{\ignorespaces Mediator\relax }}{35}{table.caption.35}}
\newlabel{default}{{3.8}{35}{Mediator\relax \relax }{Item.180}{}}
\@writefile{toc}{\contentsline {subsection}{\numberline {3.3.8}Measurement Device Manager}{35}{subsection.3.3.8}}
\@writefile{lot}{\contentsline {table}{\numberline {3.9}{\ignorespaces Measurement Device Manager\relax }}{36}{table.caption.36}}
\newlabel{default}{{3.9}{36}{Measurement Device Manager\relax \relax }{Item.187}{}}
\@writefile{toc}{\contentsline {subsection}{\numberline {3.3.9}User Interface Manager}{36}{subsection.3.3.9}}
\@writefile{lot}{\contentsline {table}{\numberline {3.10}{\ignorespaces User Interface Manager\relax }}{37}{table.caption.37}}
\newlabel{default}{{3.10}{37}{User Interface Manager\relax \relax }{Item.205}{}}
\@writefile{lot}{\contentsline {table}{\numberline {3.11}{\ignorespaces User Interface Manager (Cont.)\relax }}{38}{table.caption.38}}
\newlabel{default}{{3.11}{38}{User Interface Manager (Cont.)\relax \relax }{Item.215}{}}
\@writefile{toc}{\contentsline {subsection}{\numberline {3.3.10}Bluetooth Manager}{39}{subsection.3.3.10}}
\@writefile{lot}{\contentsline {table}{\numberline {3.12}{\ignorespaces Bluetooth Manager\relax }}{40}{table.caption.39}}
\newlabel{default}{{3.12}{40}{Bluetooth Manager\relax \relax }{Item.225}{}}
\@writefile{toc}{\contentsline {subsection}{\numberline {3.3.11}Patient information Manager}{41}{subsection.3.3.11}}
\@writefile{lot}{\contentsline {table}{\numberline {3.13}{\ignorespaces Patient information Manager\relax }}{41}{table.caption.40}}
\newlabel{default}{{3.13}{41}{Patient information Manager\relax \relax }{Item.231}{}}
\@writefile{toc}{\contentsline {chapter}{\numberline {4}System Additional Requirements}{42}{chapter.4}}
\@writefile{lof}{\addvspace {10\p@ }}
\@writefile{lot}{\addvspace {10\p@ }}
\@writefile{toc}{\contentsline {chapter}{\numberline {5}Conclusion}{43}{chapter.5}}
\@writefile{lof}{\addvspace {10\p@ }}
\@writefile{lot}{\addvspace {10\p@ }}
\@writefile{toc}{\contentsline {chapter}{\numberline {A}Glossary}{44}{appendix.A}}
\@writefile{lof}{\addvspace {10\p@ }}
\@writefile{lot}{\addvspace {10\p@ }}
\@writefile{toc}{\contentsline {chapter}{\numberline {B}Project Scope Statement }{45}{appendix.B}}
\@writefile{lof}{\addvspace {10\p@ }}
\@writefile{lot}{\addvspace {10\p@ }}
\newlabel{B}{{B}{45}{Project Scope Statement\relax }{appendix.B}{}}
\@writefile{toc}{\contentsline {chapter}{\numberline {C}Requirement Change Control Plan}{55}{appendix.C}}
\@writefile{lof}{\addvspace {10\p@ }}
\@writefile{lot}{\addvspace {10\p@ }}
\newlabel{c}{{C}{55}{Requirement Change Control Plan\relax }{appendix.C}{}}
